<svg xmlns="http://www.w3.org/2000/svg" width="20.052" height="17.26" viewBox="0 0 20.052 17.26">
  <path id="Caminho_23" data-name="Caminho 23" d="M939,556.381c-2.792-4.947-9.169-3.653-9.929.883-.829,4.951,4.911,10.247,9.929,13.216,5.017-2.968,10.938-8.242,9.929-13.216-.915-4.508-7.137-5.83-9.929-.883" transform="translate(-928.991 -553.221)" fill="#78614c"/>
</svg>
