<svg xmlns="http://www.w3.org/2000/svg" width="37" height="32" viewBox="0 0 37 32">
  <g id="Grupo_258" data-name="Grupo 258" transform="translate(-1116 -814)">
    <path id="laundry:3" d="M299.037,79.07l-.965,4.123a2.779,2.779,0,0,1-1.974.742c-1.343,0-2.433-.794-2.433-1.768h-.429c0,.974-1.094,1.768-2.433,1.768s-2.437-.794-2.437-1.768h-.429c0,.974-1.09,1.768-2.433,1.768s-2.433-.794-2.433-1.768h-.429c0,.974-1.09,1.768-2.433,1.768s-2.433-.794-2.433-1.768h-.429c0,.974-1.09,1.768-2.433,1.768a2.779,2.779,0,0,1-1.974-.742l-.965-4.123-1.257.292,4.411,18.84h20.753l4.411-18.84Zm-4.17,17.844H276.147L273.1,83.862a3.421,3.421,0,0,0,1.819.5A2.961,2.961,0,0,0,277.563,83a3.25,3.25,0,0,0,5.294,0,3.25,3.25,0,0,0,5.294,0,3.255,3.255,0,0,0,5.3,0,2.96,2.96,0,0,0,2.647,1.364,3.432,3.432,0,0,0,1.819-.5Zm-12.775-3.738a1.644,1.644,0,0,0,.14.724.962.962,0,0,0,.948.528,1.049,1.049,0,0,0,.735-.289,1.076,1.076,0,0,0,.314-.832.938.938,0,0,0-.581-.96,2.943,2.943,0,0,0-1.043-.136V91.185a2.7,2.7,0,0,0,.972-.136.839.839,0,0,0,.476-.855.958.958,0,0,0-.243-.679.888.888,0,0,0-.684-.262.866.866,0,0,0-.745.322,1.37,1.37,0,0,0-.228.86h-1.337A3.606,3.606,0,0,1,281,89.405a2.315,2.315,0,0,1,.553-.789,1.923,1.923,0,0,1,.668-.392,2.888,2.888,0,0,1,.949-.136,2.523,2.523,0,0,1,1.685.541,1.8,1.8,0,0,1,.641,1.451,1.6,1.6,0,0,1-.382,1.086,1.3,1.3,0,0,1-.5.377,1.035,1.035,0,0,1,.563.337,1.8,1.8,0,0,1,.548,1.388,2.34,2.34,0,0,1-.641,1.627,2.439,2.439,0,0,1-1.9.7,2.293,2.293,0,0,1-2.15-1.01,3,3,0,0,1-.352-1.408Zm8.836-4.123a7.187,7.187,0,0,1,0,5.566,2.444,2.444,0,0,1-3.906,0,7.186,7.186,0,0,1,0-5.566,2.436,2.436,0,0,1,3.906,0Zm-2.8,4.709a.83.83,0,0,0,.845.666.819.819,0,0,0,.837-.666,7.124,7.124,0,0,0,.2-1.923,7.046,7.046,0,0,0-.2-1.951.811.811,0,0,0-.837-.634.823.823,0,0,0-.845.634,6.792,6.792,0,0,0-.206,1.951A6.868,6.868,0,0,0,288.13,93.762Zm5.285-7.876a1.133,1.133,0,0,1,.3.85,1.466,1.466,0,0,1-.263.9.946.946,0,0,1-.813.354.916.916,0,0,1-.73-.313,1.242,1.242,0,0,1-.27-.84,1.341,1.341,0,0,1,.285-.9.953.953,0,0,1,.765-.335A1,1,0,0,1,293.416,85.885Zm-.234,1.491a1.427,1.427,0,0,0,.138-.631,1.138,1.138,0,0,0-.1-.511.559.559,0,0,0-.543-.31.533.533,0,0,0-.5.264,1.234,1.234,0,0,0-.155.636,1.071,1.071,0,0,0,.155.6.545.545,0,0,0,.493.239A.513.513,0,0,0,293.182,87.377Z" transform="translate(849.28 740.93)" fill="#a78c72"/>
    <rect id="Retângulo_165" data-name="Retângulo 165" width="37" height="32" transform="translate(1116 814)" fill="none"/>
  </g>
</svg>
