<svg xmlns="http://www.w3.org/2000/svg" width="58.733" height="67.444" viewBox="0 0 58.733 67.444">
  <g id="enviei" transform="translate(0)">
    <g id="Grupo_104" data-name="Grupo 104" transform="translate(0)">
      <g id="Grupo_103" data-name="Grupo 103" transform="translate(0)">
        <path id="Caminho_242" data-name="Caminho 242" d="M91.53,18.614l-.05-.086a3.184,3.184,0,0,0-.238-.411L81.859,1.894A3.8,3.8,0,0,0,78.575,0H46.284A3.8,3.8,0,0,0,43,1.9L33.462,18.442a1.979,1.979,0,0,0-.192.464,3.34,3.34,0,0,0-.208,1.163V62.8a4.653,4.653,0,0,0,4.648,4.648H87.147A4.653,4.653,0,0,0,91.8,62.8V19.912c0-.057,0-.114,0-.171A1.967,1.967,0,0,0,91.53,18.614ZM64.473,3.953h14.01l7.381,12.761H64.473Zm-18.1,0H60.52V16.714h-21.5ZM87.842,62.8a.7.7,0,0,1-.695.695H37.71a.7.7,0,0,1-.695-.695V20.667H87.842Z" transform="translate(-33.062 0)" fill="#a78c72"/>
      </g>
    </g>
    <g id="Grupo_106" data-name="Grupo 106" transform="translate(19.95 34.991)">
      <g id="Grupo_105" data-name="Grupo 105" transform="translate(0)">
        <path id="Caminho_243" data-name="Caminho 243" d="M202.9,266.211a1.977,1.977,0,0,0-2.8,0l-8.826,8.826-3.394-3.394a1.977,1.977,0,1,0-2.8,2.8l4.792,4.791a1.976,1.976,0,0,0,2.8,0L202.9,269.006A1.977,1.977,0,0,0,202.9,266.211Z" transform="translate(-184.512 -265.632)" fill="#a78c72"/>
      </g>
    </g>
  </g>
</svg>
