<svg xmlns="http://www.w3.org/2000/svg" width="56.648" height="2" viewBox="0 0 56.648 2">
  <line id="Line_2" data-name="Line 2" x2="56.648" transform="translate(0 1)" fill="none" stroke="#fdfcfa" stroke-width="2"/>
</svg>
