<svg id="DUmgTW" xmlns="http://www.w3.org/2000/svg" width="14.1" height="19.504" viewBox="0 0 14.1 19.504">
  <g id="Grupo_78" data-name="Grupo 78">
    <path id="Caminho_188" data-name="Caminho 188" d="M276.186,24.78a10.27,10.27,0,0,1-1.085,4.266,34.85,34.85,0,0,1-5,7.517c-.131.156-.255.317-.39.468-.411.456-.764.468-1.158-.007-.7-.837-1.39-1.677-2.044-2.544A26.87,26.87,0,0,1,262.73,28a7.279,7.279,0,0,1,.33-6.657,7.05,7.05,0,0,1,13.125,3.436Zm-7.049,10.971a38.17,38.17,0,0,0,3.877-5.423,15.943,15.943,0,0,0,1.718-3.934,5.792,5.792,0,1,0-11.185.025,15.963,15.963,0,0,0,1.746,3.968A37.985,37.985,0,0,0,269.137,35.751Z" transform="translate(-262.086 -17.873)" fill="#a78c72"/>
    <path id="Caminho_189" data-name="Caminho 189" d="M270.7,22.934a3.561,3.561,0,0,1-3.528,3.56,3.52,3.52,0,0,1-3.553-3.53,3.541,3.541,0,1,1,7.081-.03Zm-1.266.053a2.277,2.277,0,1,0-2.335,2.23A2.261,2.261,0,0,0,269.432,22.987Z" transform="translate(-260.106 -15.901)" fill="#a78c72"/>
  </g>
</svg>
