<svg xmlns="http://www.w3.org/2000/svg" width="77.906" height="71.855" viewBox="0 0 77.906 71.855">
  <g id="transfer" transform="translate(2 1.054)">
    <path id="Caminho_273" data-name="Caminho 273" d="M65.358,44.112a2.31,2.31,0,0,1-2.31-2.31A16.185,16.185,0,0,0,46.882,25.635H24.556V35.644a2.313,2.313,0,0,1-3.9,1.669L3.714,21.146a2.307,2.307,0,0,1,0-3.338L20.651,1.641a2.312,2.312,0,0,1,3.9,1.669V13.318H43.8A23.894,23.894,0,0,1,67.668,37.183V41.8A2.31,2.31,0,0,1,65.358,44.112Z" transform="translate(6.238 0)" fill="none" stroke="#a68c74" stroke-width="4"/>
    <path id="Caminho_274" data-name="Caminho 274" d="M43.112,49.8V39.794H23.866A23.894,23.894,0,0,1,0,15.929V11.31a2.31,2.31,0,0,1,4.619,0A16.185,16.185,0,0,0,20.786,27.477H43.112V17.468a2.311,2.311,0,0,1,3.9-1.669L63.954,31.966a2.307,2.307,0,0,1,0,3.338L47.017,51.471A2.312,2.312,0,0,1,43.112,49.8Z" transform="translate(0 16.635)" fill="none" stroke="#a68c74" stroke-width="4"/>
  </g>
</svg>
