<svg id="Group_55" data-name="Group 55" xmlns="http://www.w3.org/2000/svg" width="37.187" height="37.187" viewBox="0 0 37.187 37.187">
  <path id="Path_236" data-name="Path 236" d="M28.7,25.6a3.1,3.1,0,1,0,3.1,3.1A3.1,3.1,0,0,0,28.7,25.6Z" transform="translate(-10.105 -10.105)" fill="#fff" fill-rule="evenodd"/>
  <path id="Path_237" data-name="Path 237" d="M32.987,20.263A3.076,3.076,0,0,0,31.22,18.5a5.148,5.148,0,0,0-1.725-.321c-.981-.042-1.277-.054-3.759-.054s-2.778.012-3.759.054a5.148,5.148,0,0,0-1.725.321,3.076,3.076,0,0,0-1.767,1.767,5.148,5.148,0,0,0-.321,1.725c-.042.981-.054,1.277-.054,3.759s.012,2.778.054,3.759a5.148,5.148,0,0,0,.321,1.725A3.076,3.076,0,0,0,20.253,33a5.148,5.148,0,0,0,1.725.321c.981.042,1.277.054,3.759.054s2.778-.012,3.759-.054A5.148,5.148,0,0,0,31.22,33a3.076,3.076,0,0,0,1.767-1.767,5.148,5.148,0,0,0,.321-1.725c.042-.981.054-1.277.054-3.759s-.012-2.778-.054-3.759A5.184,5.184,0,0,0,32.987,20.263ZM25.742,30.522a4.776,4.776,0,1,1,4.776-4.776A4.774,4.774,0,0,1,25.742,30.522ZM30.705,21.9a1.114,1.114,0,1,1,1.114-1.114A1.115,1.115,0,0,1,30.705,21.9Z" transform="translate(-7.149 -7.153)" fill="#fff" fill-rule="evenodd"/>
  <path id="Path_238" data-name="Path 238" d="M18.594,0A18.594,18.594,0,1,0,37.187,18.594,18.591,18.591,0,0,0,18.594,0Zm9.3,18.824c0,2.312-.012,2.645-.054,3.6a6.787,6.787,0,0,1-.43,2.258A4.744,4.744,0,0,1,24.689,27.4a6.754,6.754,0,0,1-2.258.43c-.993.042-1.307.054-3.831.054s-2.839-.012-3.831-.054a6.787,6.787,0,0,1-2.258-.43,4.744,4.744,0,0,1-2.718-2.718,6.754,6.754,0,0,1-.43-2.258c-.042-.993-.054-1.307-.054-3.831s.012-2.839.054-3.831a6.754,6.754,0,0,1,.43-2.258,4.744,4.744,0,0,1,2.718-2.718,6.754,6.754,0,0,1,2.258-.43c.962-.042,1.289-.054,3.6-.054h.46c2.312,0,2.639.012,3.6.054a6.754,6.754,0,0,1,2.258.43A4.744,4.744,0,0,1,27.406,12.5a6.754,6.754,0,0,1,.43,2.258c.042.962.054,1.289.054,3.6Z" fill="#fff" fill-rule="evenodd"/>
</svg>
