<svg xmlns="http://www.w3.org/2000/svg" width="786.2" height="443.6" viewBox="0 0 786.2 443.6">
  <g id="Iora_2_Convertido_" data-name="Iora 2 [Convertido]" transform="translate(-567.5 -318.3)">
    <path id="Caminho_273" data-name="Caminho 273" d="M593.2,318.3a24.923,24.923,0,0,1,18.3,7.6,25.214,25.214,0,0,1,7.6,18.4,24.641,24.641,0,0,1-7.6,18.1,25.75,25.75,0,0,1-44-18.1,25.285,25.285,0,0,1,7.5-18.4,24.7,24.7,0,0,1,18.2-7.6ZM577.5,431.2,609,418.4V651.1l-31.5,10.5V431.2ZM789,412.1c37.4,0,68.3,13.6,93,40.8q33.45,37.05,33.5,87.8,0,51-35.4,89.1T789,667.9q-55.95,0-91.4-38.1c-23.7-25.4-35.4-55.2-35.4-89.1q0-50.4,33.5-87.6,36.9-40.95,93.3-41Zm0,30.7c-26,0-48.2,9.6-66.9,28.9q-27.9,28.8-27.9,69.7a99.022,99.022,0,0,0,12.7,49.1,90.564,90.564,0,0,0,34.4,35.3,97.753,97.753,0,0,0,95.3,0A91.253,91.253,0,0,0,871,590.5a99.022,99.022,0,0,0,12.7-49.1q0-40.95-28.1-69.7c-18.6-19.2-40.8-28.9-66.6-28.9Zm172.8-15.1,32-9.3V454c9.5-14,19.6-24.4,30.1-31.4,10.7-6.9,21.6-10.4,33.1-10.4a39.718,39.718,0,0,1,11.1,1.6v33.1c-6.6-2.9-11.7-4.2-16.3-4.2-10.4,0-20.4,4.2-30.1,12.8s-17.1,21.9-22.2,39.9q-5.85,20.85-5.8,84V650l-32,11.7v-234Zm391.9-9.3V652.3l-30.8,9.4V619.9c-13.1,16-27.9,27.9-44.1,36q-24.45,12.15-53.6,12.1-51.6,0-88.2-37.4c-24.3-25-36.6-55.4-36.6-91.1,0-35.1,12.4-64.9,36.9-89.9,24.6-24.8,54.2-37.4,88.8-37.4q30,0,54.2,12.7c16.1,8.6,30.4,21.3,42.6,38.2V428.9l30.8-10.5Zm-125.2,24a94.267,94.267,0,0,0-83.5,48.9,98.754,98.754,0,0,0,.2,98.3,96.565,96.565,0,0,0,35.4,36.6,92.751,92.751,0,0,0,47.7,13,97.137,97.137,0,0,0,48.7-13c15.3-8.6,27.2-20.3,35.4-35.1,8.4-14.8,12.5-31.4,12.5-49.8,0-28.2-9.4-51.7-27.9-70.6S1255.6,442.4,1228.5,442.4Z" fill="#d8c1a9"/>
    <path id="Caminho_274" data-name="Caminho 274" d="M577.6,761.1h0V732.4h3.9v25.3H596v3.4H577.6Zm107.6,0V732.4h3.9v28.7h-3.9Zm99,0h-3.8V732.4h4.7l14.4,23.3h0V732.4h3.8v28.7H799l-14.8-23.5h0v23.5Zm122.2.8a12.009,12.009,0,0,1-9.6-4.2,16.423,16.423,0,0,1-3.7-11c0-4.5,1.2-8.1,3.7-10.9a12.63,12.63,0,0,1,9.9-4.2,12.88,12.88,0,0,1,8.1,2.6,10.464,10.464,0,0,1,4,6.8h-3.7a6.933,6.933,0,0,0-2.8-4.4,9.971,9.971,0,0,0-5.8-1.5,8.53,8.53,0,0,0-6.8,3.2,13.5,13.5,0,0,0-2.7,8.5c0,3.7.9,6.7,2.5,8.7a9.577,9.577,0,0,0,14.2-.1,7.637,7.637,0,0,0,.8-1.1,5.076,5.076,0,0,0,.8-2.2,12.658,12.658,0,0,0,.4-2.6v-.4h-9v-3.3h12.5v15.3h-2.4l-.9-3.7h0l-.2.3a11.129,11.129,0,0,1-9.3,4.2Zm104.1-.8h0V732.4h21v3.4h-17.1v8.8h15.7V748h-15.7v9.6h17.4V761h-21.3Zm111.6,0V732.4h13.3c3,0,5.3.6,6.9,1.9a7.121,7.121,0,0,1,2.4,5.8,7.471,7.471,0,0,1-2.4,5.9,6.708,6.708,0,0,1-1.4.9h0l.6.3a5.535,5.535,0,0,1,2.7,5.1l.1,5.3a2.82,2.82,0,0,0,.4,1.8c.1.4.6.7,1.1,1v.6H1141a10.51,10.51,0,0,1-.3-1.9q-.15-1.5-.3-3.3l-.1-2.2c-.1-1.8-.5-3.1-1.3-3.8a5.627,5.627,0,0,0-4-1.2h-9.2V761h-3.7Zm3.9-15.7h9.6a5.627,5.627,0,0,0,4-1.2c.9-.7,1.3-2,1.3-3.7a4.364,4.364,0,0,0-1.4-3.7,6.022,6.022,0,0,0-4.2-1.2H1126v9.8Zm109.9,15.7V732.4h3.9v28.7h-3.9Zm95.7,0h0V732.4h21v3.4h-17.1v8.8h15.6V748h-15.6v9.6h17.4V761h-21.3Z" fill="#d8c1a9"/>
  </g>
</svg>
